Main/dump.vcd
$date
	Tue May 27 14:06:36 2025
$end
$version
	Icarus Verilog
$end
$timescale
	1ns
$end
$scope module tb $end
$var wire 32 ! current_instr [31:0] $end
$var wire 32 " current_pc [31:0] $end
$var wire 1 # IllegalOp $end
$var reg 1 $ clk $end
$var reg 1 % rst $end
$scope module dut $end
$var wire 1 $ clk $end
$var wire 1 % rst $end
$var wire 32 & WriteDataM [31:0] $end
$var wire 32 ' ResultW [31:0] $end
$var wire 1 ( ResultSrcW $end
$var wire 1 ) ResultSrcM $end
$var wire 1 * ResultSrcE $end
$var wire 1 + RegWriteW $end
$var wire 1 , RegWriteM $end
$var wire 1 - RegWriteE $end
$var wire 32 . ReadDataW [31:0] $end
$var wire 5 / RS2_E [4:0] $end
$var wire 5 0 RS1_E [4:0] $end
$var wire 5 1 RD_M [4:0] $end
$var wire 5 2 RD_E [4:0] $end
$var wire 5 3 RDW [4:0] $end
$var wire 32 4 RD2_E [31:0] $end
$var wire 32 5 RD1_E [31:0] $end
$var wire 32 6 PCTargetE [31:0] $end
$var wire 1 7 PCSrcE $end
$var wire 32 8 PCPlus4W [31:0] $end
$var wire 32 9 PCPlus4M [31:0] $end
$var wire 32 : PCPlus4E [31:0] $end
$var wire 32 ; PCPlus4D [31:0] $end
$var wire 32 < PCE [31:0] $end
$var wire 32 = PCD [31:0] $end
$var wire 1 > MemWriteM $end
$var wire 1 ? MemWriteE $end
$var wire 32 @ InstrD [31:0] $end
$var wire 32 A ImmExt_E [31:0] $end
$var wire 1 # IllegalOp $end
$var wire 2 B ForwardBE [1:0] $end
$var wire 2 C ForwardAE [1:0] $end
$var wire 1 D BranchE $end
$var wire 32 E ALU_ResultW [31:0] $end
$var wire 32 F ALU_ResultM [31:0] $end
$var wire 1 G ALUSrcE $end
$var wire 3 H ALUControlE [2:0] $end
$scope module Decode $end
$var wire 3 I ALUControlE [2:0] $end
$var wire 1 G ALUSrcE $end
$var wire 1 D BranchE $end
$var wire 1 # IllegalOp $end
$var wire 32 J ImmExt_E [31:0] $end
$var wire 1 ? MemWriteE $end
$var wire 32 K PCE [31:0] $end
$var wire 32 L PCPlus4E [31:0] $end
$var wire 32 M RD1_E [31:0] $end
$var wire 32 N RD2_E [31:0] $end
$var wire 5 O RD_E [4:0] $end
$var wire 5 P RS1_E [4:0] $end
$var wire 5 Q RS2_E [4:0] $end
$var wire 1 - RegWriteE $end
$var wire 1 * ResultSrcE $end
$var wire 1 $ clk $end
$var wire 1 % rst $end
$var wire 32 R ResultW [31:0] $end
$var wire 1 S ResultSrcD $end
$var wire 1 + RegWriteW $end
$var wire 1 T RegWriteD $end
$var wire 5 U RDW [4:0] $end
$var wire 32 V RD2_D [31:0] $end
$var wire 32 W RD1_D [31:0] $end
$var wire 32 X PCPlus4D [31:0] $end
$var wire 32 Y PCD [31:0] $end
$var wire 1 Z MemWriteD $end
$var wire 32 [ InstrD [31:0] $end
$var wire 2 \ ImmSrcD [1:0] $end
$var wire 32 ] ImmExt_D [31:0] $end
$var wire 1 ^ IllegalOp_D $end
$var wire 1 _ BranchD $end
$var wire 1 ` ALUSrcD $end
$var wire 3 a ALUControlD [2:0] $end
$var reg 3 b ALUControlD_r [2:0] $end
$var reg 1 G ALUSrcD_r $end
$var reg 1 D BranchD_r $end
$var reg 1 c IllegalOp_r $end
$var reg 32 d ImmExt_D_r [31:0] $end
$var reg 1 e MemWriteD_r $end
$var reg 32 f PCD_r [31:0] $end
$var reg 32 g PCPlus4D_r [31:0] $end
$var reg 32 h RD1_D_r [31:0] $end
$var reg 32 i RD2_D_r [31:0] $end
$var reg 5 j RD_D_r [4:0] $end
$var reg 5 k RS1_D_r [4:0] $end
$var reg 5 l RS2_D_r [4:0] $end
$var reg 1 m RegWriteD_r $end
$var reg 1 n ResultSrcD_r $end
$scope module control $end
$var wire 1 ^ IllegalOp $end
$var wire 7 o Op [6:0] $end
$var wire 3 p funct3 [2:0] $end
$var wire 7 q funct7 [6:0] $end
$var wire 1 S ResultSrc $end
$var wire 1 T RegWrite $end
$var wire 1 Z MemWrite $end
$var wire 1 r MainDecoder_Illegal $end
$var wire 2 s ImmSrc [1:0] $end
$var wire 1 _ Branch $end
$var wire 1 ` ALUSrc $end
$var wire 2 t ALUOp [1:0] $end
$var wire 3 u ALUControl [2:0] $end
$scope function checkALUIllegal $end
$var reg 2 v ALUOp [1:0] $end
$var reg 3 w funct3 [2:0] $end
$var reg 7 x funct7 [6:0] $end
$upscope $end
$scope module ALU_Decoder $end
$var wire 3 y funct3 [2:0] $end
$var wire 7 z funct7 [6:0] $end
$var wire 7 { op [6:0] $end
$var wire 2 | ALUOp [1:0] $end
$var wire 3 } ALUControl [2:0] $end
$upscope $end
$scope module Main_Decoder $end
$var wire 1 r IllegalOp $end
$var wire 7 ~ Op [6:0] $end
$var wire 1 !" is_system $end
$var wire 1 "" is_store $end
$var wire 1 #" is_rtype $end
$var wire 1 $" is_lui $end
$var wire 1 %" is_load $end
$var wire 1 &" is_jalr $end
$var wire 1 '" is_jal $end
$var wire 1 (" is_branch $end
$var wire 1 )" is_auipc $end
$var wire 1 *" is_alui $end
$var wire 1 S ResultSrc $end
$var wire 1 T RegWrite $end
$var wire 1 Z MemWrite $end
$var wire 2 +" ImmSrc [1:0] $end
$var wire 1 _ Branch $end
$var wire 1 ` ALUSrc $end
$var wire 2 ," ALUOp [1:0] $end
$upscope $end
$upscope $end
$scope module extension $end
$var wire 2 -" ImmSrc [1:0] $end
$var wire 32 ." In [31:0] $end
$var wire 32 /" ImmExt [31:0] $end
$upscope $end
$scope module rf $end
$var wire 5 0" A1 [4:0] $end
$var wire 5 1" A2 [4:0] $end
$var wire 1 $ clk $end
$var wire 1 % rst $end
$var wire 1 + WE3 $end
$var wire 32 2" WD3 [31:0] $end
$var wire 32 3" RD2 [31:0] $end
$var wire 32 4" RD1 [31:0] $end
$var wire 5 5" A3 [4:0] $end
$upscope $end
$upscope $end
$scope module Execute $end
$var wire 3 6" ALUControlE [2:0] $end
$var wire 1 G ALUSrcE $end
$var wire 1 D BranchE $end
$var wire 32 7" ImmExt_E [31:0] $end
$var wire 1 ? MemWriteE $end
$var wire 1 > MemWriteM $end
$var wire 32 8" PCE [31:0] $end
$var wire 32 9" PCPlus4E [31:0] $end
$var wire 32 :" PCPlus4M [31:0] $end
$var wire 1 7 PCSrcE $end
$var wire 32 ;" RD1_E [31:0] $end
$var wire 32 <" RD2_E [31:0] $end
$var wire 5 =" RD_E [4:0] $end
$var wire 5 >" RD_M [4:0] $end
$var wire 1 - RegWriteE $end
$var wire 1 , RegWriteM $end
$var wire 1 * ResultSrcE $end
$var wire 1 ) ResultSrcM $end
$var wire 32 ?" WriteDataM [31:0] $end
$var wire 1 $ clk $end
$var wire 1 % rst $end
$var wire 1 @" ZeroE $end
$var wire 32 A" Src_B_interim [31:0] $end
$var wire 32 B" Src_B [31:0] $end
$var wire 32 C" Src_A [31:0] $end
$var wire 32 D" ResultW [31:0] $end
$var wire 32 E" ResultE [31:0] $end
$var wire 32 F" PCTargetE [31:0] $end
$var wire 2 G" ForwardB_E [1:0] $end
$var wire 2 H" ForwardA_E [1:0] $end
$var wire 32 I" ALU_ResultM [31:0] $end
$var reg 1 J" MemWriteE_r $end
$var reg 32 K" PCPlus4E_r [31:0] $end
$var reg 32 L" RD2_E_r [31:0] $end
$var reg 5 M" RD_E_r [4:0] $end
$var reg 1 N" RegWriteE_r $end
$var reg 32 O" ResultE_r [31:0] $end
$var reg 1 P" ResultSrcE_r $end
$scope module alu $end
$var wire 3 Q" ALUControl [2:0] $end
$var wire 1 R" Carry $end
$var wire 1 S" OverFlow $end
$var wire 1 @" Zero $end
$var wire 32 T" Sum [31:0] $end
$var wire 32 U" Result [31:0] $end
$var wire 1 V" Negative $end
$var wire 1 W" Cout $end
$var wire 32 X" B [31:0] $end
$var wire 32 Y" A [31:0] $end
$upscope $end
$scope module alu_src_mux $end
$var wire 32 Z" b [31:0] $end
$var wire 1 G s $end
$var wire 32 [" c [31:0] $end
$var wire 32 \" a [31:0] $end
$upscope $end
$scope module branch_adder $end
$var wire 32 ]" a [31:0] $end
$var wire 32 ^" b [31:0] $end
$var wire 32 _" c [31:0] $end
$upscope $end
$scope module srca_mux $end
$var wire 32 `" a [31:0] $end
$var wire 32 a" c [31:0] $end
$var wire 2 b" s [1:0] $end
$var wire 32 c" d [31:0] $end
$var wire 32 d" b [31:0] $end
$upscope $end
$scope module srcb_mux $end
$var wire 32 e" a [31:0] $end
$var wire 32 f" c [31:0] $end
$var wire 2 g" s [1:0] $end
$var wire 32 h" d [31:0] $end
$var wire 32 i" b [31:0] $end
$upscope $end
$upscope $end
$scope module Fetch $end
$var wire 1 7 PCSrcE $end
$var wire 32 j" PCTargetE [31:0] $end
$var wire 1 $ clk $end
$var wire 1 % rst $end
$var wire 32 k" PC_F [31:0] $end
$var wire 32 l" PCPlus4F [31:0] $end
$var wire 32 m" PCPlus4D [31:0] $end
$var wire 32 n" PCF [31:0] $end
$var wire 32 o" PCD [31:0] $end
$var wire 32 p" InstrF [31:0] $end
$var wire 32 q" InstrD [31:0] $end
$var reg 32 r" InstrF_reg [31:0] $end
$var reg 32 s" PCF_reg [31:0] $end
$var reg 32 t" PCPlus4F_reg [31:0] $end
$scope module IMEM $end
$var wire 1 % rst $end
$var wire 32 u" RD [31:0] $end
$var wire 32 v" A [31:0] $end
$upscope $end
$scope module PC_MUX $end
$var wire 32 w" b [31:0] $end
$var wire 1 7 s $end
$var wire 32 x" c [31:0] $end
$var wire 32 y" a [31:0] $end
$upscope $end
$scope module PC_adder $end
$var wire 32 z" b [31:0] $end
$var wire 32 {" c [31:0] $end
$var wire 32 |" a [31:0] $end
$upscope $end
$scope module Program_Counter $end
$var wire 32 }" PC_Next [31:0] $end
$var wire 1 $ clk $end
$var wire 1 % rst $end
$var reg 32 ~" PC [31:0] $end
$upscope $end
$upscope $end
$scope module Forwarding_block $end
$var wire 5 !# RD_M [4:0] $end
$var wire 1 , RegWriteM $end
$var wire 5 "# Rs1_E [4:0] $end
$var wire 5 ## Rs2_E [4:0] $end
$var wire 1 % rst $end
$var wire 1 + RegWriteW $end
$var wire 5 $# RD_W [4:0] $end
$var reg 2 %# ForwardAE [1:0] $end
$var reg 2 &# ForwardBE [1:0] $end
$upscope $end
$scope module Memory $end
$var wire 32 '# ALU_ResultM [31:0] $end
$var wire 32 (# ALU_ResultW [31:0] $end
$var wire 1 > MemWriteM $end
$var wire 32 )# PCPlus4M [31:0] $end
$var wire 32 *# PCPlus4W [31:0] $end
$var wire 5 +# RD_M [4:0] $end
$var wire 5 ,# RD_W [4:0] $end
$var wire 32 -# ReadDataW [31:0] $end
$var wire 1 , RegWriteM $end
$var wire 1 + RegWriteW $end
$var wire 1 ) ResultSrcM $end
$var wire 1 ( ResultSrcW $end
$var wire 32 .# WriteDataM [31:0] $end
$var wire 1 $ clk $end
$var wire 1 % rst $end
$var wire 32 /# ReadDataM [31:0] $end
$var reg 32 0# ALU_ResultM_r [31:0] $end
$var reg 32 1# PCPlus4M_r [31:0] $end
$var reg 5 2# RD_M_r [4:0] $end
$var reg 32 3# ReadDataM_r [31:0] $end
$var reg 1 4# RegWriteM_r $end
$var reg 1 ( ResultSrcM_r $end
$scope module dmem $end
$var wire 32 5# A [31:0] $end
$var wire 32 6# WD [31:0] $end
$var wire 1 > WE $end
$var wire 1 $ clk $end
$var wire 1 % rst $end
$var wire 32 7# RD [31:0] $end
$upscope $end
$upscope $end
$scope module WriteBack $end
$var wire 32 8# ALU_ResultW [31:0] $end
$var wire 32 9# PCPlus4W [31:0] $end
$var wire 32 :# ReadDataW [31:0] $end
$var wire 1 ( ResultSrcW $end
$var wire 1 $ clk $end
$var wire 1 % rst $end
$var wire 32 ;# ResultW [31:0] $end
$scope module result_mux $end
$var wire 32 <# a [31:0] $end
$var wire 32 =# b [31:0] $end
$var wire 1 ( s $end
$var wire 32 ># c [31:0] $end
$upscope $end
$upscope $end
$upscope $end
$upscope $end
$scope module tb $end
$scope module dut $end
$upscope $end
$upscope $end
$scope module tb $end
$scope module dut $end
$scope module Fetch $end
$upscope $end
$upscope $end
$upscope $end
$scope module tb $end
$scope module dut $end
$scope module Fetch $end
$scope module IMEM $end
$upscope $end
$upscope $end
$upscope $end
$upscope $end
$enddefinitions $end
$comment Show the parameter values. $end
$dumpall
$end
#0
$dumpvars
bx >#
bx =#
bx <#
bx ;#
bx :#
bx 9#
bx 8#
bx 7#
bx 6#
bx 5#
x4#
bx 3#
bx 2#
bx 1#
bx 0#
bx /#
bx .#
bx -#
bx ,#
bx +#
bx *#
bx )#
bx (#
bx '#
b0 &#
b0 %#
bx $#
bx ##
bx "#
bx !#
bx ~"
bx }"
bx |"
bx {"
b100 z"
bx y"
bx x"
bx w"
bx v"
bx u"
bx t"
bx s"
bx r"
bx q"
bx p"
bx o"
bx n"
bx m"
bx l"
bx k"
bx j"
bx i"
bx h"
b0 g"
bx f"
bx e"
bx d"
bx c"
b0 b"
bx a"
bx `"
bx _"
bx ^"
bx ]"
bx \"
bx ["
bx Z"
bx Y"
bx X"
0W"
xV"
bx U"
bx T"
xS"
0R"
bx Q"
xP"
bx O"
xN"
bx M"
bx L"
bx K"
xJ"
bx I"
b0 H"
b0 G"
bx F"
bx E"
bx D"
bx C"
bx B"
bx A"
x@"
bx ?"
bx >"
bx ="
bx <"
bx ;"
bx :"
bx 9"
bx 8"
bx 7"
bx 6"
bx 5"
bx 4"
bx 3"
bx 2"
bx 1"
bx 0"
bx /"
bx ."
bx -"
bx ,"
bx +"
x*"
x)"
x("
x'"
x&"
x%"
x$"
x#"
x""
x!"
bx ~
bx }
bx |
bx {
bx z
bx y
bx x
bx w
bx v
bx u
bx t
bx s
xr
bx q
bx p
bx o
xn
xm
bx l
bx k
bx j
bx i
bx h
bx g
bx f
xe
bx d
xc
bx b
bx a
x`
x_
x^
bx ]
bx \
bx [
xZ
bx Y
bx X
bx W
bx V
bx U
xT
xS
bx R
bx Q
bx P
bx O
bx N
bx M
bx L
bx K
bx J
bx I
bx H
xG
bx F
bx E
xD
b0 C
b0 B
bx A
bx @
x?
x>
bx =
bx <
bx ;
bx :
bx 9
bx 8
x7
bx 6
bx 5
bx 4
bx 3
bx 2
bx 1
bx 0
bx /
bx .
x-
x,
x+
x*
x)
x(
bx '
bx &
1%
0$
x#
bx "
bx !
$end
#5
1$
#10
0$
#15
1$
#20
0S"
0V"
1@"
b0 E"
b0 U"
b0 T"
b0 B"
b0 X"
b0 ["
b0 A"
b0 \"
b0 h"
b0 C"
b0 Y"
b0 c"
07
b0 '
b0 R
b0 2"
b0 D"
b0 d"
b0 i"
b0 ;#
b0 >#
b0 t"
b0 s"
b0 r"
0#
0c
b0 /
b0 Q
b0 ##
b0 l
b0 0
b0 P
b0 "#
b0 k
b0 :
b0 L
b0 9"
b0 g
b0 6
b0 F"
b0 _"
b0 j"
b0 w"
b0 <
b0 K
b0 f
b0 8"
b0 ]"
b0 2
b0 O
b0 ="
b0 j
b0 A
b0 J
b0 d
b0 7"
b0 Z"
b0 ^"
b0 4
b0 N
b0 i
b0 <"
b0 e"
b0 5
b0 M
b0 h
b0 ;"
b0 `"
b0 H
b0 I
b0 b
b0 6"
b0 Q"
0D
0*
0n
0?
0e
0G
0-
0m
b0 F
b0 I"
b0 O"
b0 a"
b0 f"
b0 '#
b0 5#
b0 &
b0 ?"
b0 .#
b0 6#
b0 L"
b0 9
b0 :"
b0 )#
b0 K"
b0 1
b0 >"
b0 !#
b0 +#
b0 M"
0)
0P"
0>
0J"
0,
0N"
b0 .
b0 -#
b0 3#
b0 :#
b0 =#
b0 E
b0 (#
b0 0#
b0 8#
b0 <#
b0 8
b0 *#
b0 9#
b0 1#
b0 3
b0 U
b0 5"
b0 $#
b0 ,#
b0 2#
0(
0+
04#
1^
1r
0T
0`
b0 a
b0 u
b0 }
b0 ]
b0 /"
b0 x
b0 w
b0 v
b0 \
b0 s
b0 +"
b0 -"
0Z
0S
0_
b0 t
b0 |
b0 ,"
b0 1"
b0 0"
b0 p
b0 y
b0 q
b0 z
0%"
0""
0("
0&"
0'"
0*"
0)"
0$"
0#"
0!"
b0 o
b0 {
b0 ~
b0 W
b0 4"
b0 V
b0 3"
b0 !
b0 @
b0 [
b0 ."
b0 q"
b0 "
b0 =
b0 Y
b0 o"
b0 ;
b0 X
b0 m"
b0 p"
b0 u"
b0 /#
b0 7#
0$
0%
#25
b100 k"
b100 x"
b100 }"
b100 l"
b100 y"
b100 {"
b0 n"
b0 v"
b0 |"
b0 ~"
1$
#30
0$
#35
1$
#40
b10100000000010100010011 p"
b10100000000010100010011 u"
0$
1%
#45
0^
0r
1T
1`
b101 ]
b101 /"
bx V
bx 3"
b100000000000000011101111 p"
b100000000000000011101111 u"
b101 1"
1*"
b10011 o
b10011 {
b10011 ~
b1000 k"
b1000 x"
b1000 }"
b100 ;
b100 X
b100 m"
b10100000000010100010011 !
b10100000000010100010011 @
b10100000000010100010011 [
b10100000000010100010011 ."
b10100000000010100010011 q"
b1000 l"
b1000 y"
b1000 {"
b100 n"
b100 v"
b100 |"
b100 ~"
1#
1c
b100 t"
b10100000000010100010011 r"
1$
#50
0$
#55
0^
0r
0@"
b101 E"
b101 U"
0T
0`
b1000 ]
b1000 /"
b101 T"
b100110000000000000001101111 p"
b100110000000000000001101111 u"
b1000 1"
1'"
0*"
b1101111 o
b1101111 {
b1101111 ~
b101 B"
b101 X"
b101 ["
b1100 k"
b1100 x"
b1100 }"
b1000 ;
b1000 X
b1000 m"
b100 "
b100 =
b100 Y
b100 o"
b100000000000000011101111 !
b100000000000000011101111 @
b100000000000000011101111 [
b100000000000000011101111 ."
b100000000000000011101111 q"
bx A"
bx \"
bx h"
b1100 l"
b1100 y"
b1100 {"
b1000 n"
b1000 v"
b1000 |"
b1000 ~"
b1000 t"
b100 s"
b100000000000000011101111 r"
0#
0c
b101 /
b101 Q
b101 ##
b101 l
b100 :
b100 L
b100 9"
b100 g
b1010 2
b1010 O
b1010 ="
b1010 j
b101 6
b101 F"
b101 _"
b101 j"
b101 w"
b101 A
b101 J
b101 d
b101 7"
b101 Z"
b101 ^"
bx 4
bx N
bx i
bx <"
bx e"
1G
1-
1m
1$
#60
0$
#65
xS"
xV"
x@"
bx E"
bx U"
b1001100 ]
b1001100 /"
b10 x
b11111111010000010000000100010011 p"
b11111111010000010000000100010011 u"
bx T"
b1100 1"
b10 q
b10 z
b10000 k"
b10000 x"
b10000 }"
bx /#
bx 7#
bx B"
bx X"
bx ["
b1100 ;
b1100 X
b1100 m"
b1000 "
b1000 =
b1000 Y
b1000 o"
b100110000000000000001101111 !
b100110000000000000001101111 @
b100110000000000000001101111 [
b100110000000000000001101111 ."
b100110000000000000001101111 q"
b10000 l"
b10000 y"
b10000 {"
b1100 n"
b1100 v"
b1100 |"
b1100 ~"
b101 F
b101 I"
b101 O"
b101 a"
b101 f"
b101 '#
b101 5#
bx &
bx ?"
bx .#
bx 6#
bx L"
b100 9
b100 :"
b100 )#
b100 K"
b1010 1
b1010 >"
b1010 !#
b1010 +#
b1010 M"
1,
1N"
b1000 /
b1000 Q
b1000 ##
b1000 l
b1000 :
b1000 L
b1000 9"
b1000 g
b100 <
b100 K
b100 f
b100 8"
b100 ]"
b1 2
b1 O
b1 ="
b1 j
b1100 6
b1100 F"
b1100 _"
b1100 j"
b1100 w"
b1000 A
b1000 J
b1000 d
b1000 7"
b1000 Z"
b1000 ^"
0G
0-
0m
b1100 t"
b1000 s"
b100110000000000000001101111 r"
1$
#70
0$
#75
1T
1`
b11111111111111111111111111110100 ]
b11111111111111111111111111110100 /"
bx W
bx 4"
b1111111 x
b100010010010000100011 p"
b100010010010000100011 u"
b10100 1"
b10 0"
b1111111 q
b1111111 z
0'"
1*"
b10011 o
b10011 {
b10011 ~
b10100 k"
b10100 x"
b10100 }"
b10000 ;
b10000 X
b10000 m"
b1100 "
b1100 =
b1100 Y
b1100 o"
b11111111010000010000000100010011 !
b11111111010000010000000100010011 @
b11111111010000010000000100010011 [
b11111111010000010000000100010011 ."
b11111111010000010000000100010011 q"
b101 '
b101 R
b101 2"
b101 D"
b101 d"
b101 i"
b101 ;#
b101 >#
b10100 l"
b10100 y"
b10100 {"
b10000 n"
b10000 v"
b10000 |"
b10000 ~"
b10000 t"
b1100 s"
b11111111010000010000000100010011 r"
b1100 /
b1100 Q
b1100 ##
b1100 l
b1100 :
b1100 L
b1100 9"
b1100 g
b1000 <
b1000 K
b1000 f
b1000 8"
b1000 ]"
b0 2
b0 O
b0 ="
b0 j
b1010100 6
b1010100 F"
b1010100 _"
b1010100 j"
b1010100 w"
b1001100 A
b1001100 J
b1001100 d
b1001100 7"
b1001100 Z"
b1001100 ^"
bx F
bx I"
bx O"
bx a"
bx f"
bx '#
bx 5#
b1000 9
b1000 :"
b1000 )#
b1000 K"
b1 1
b1 >"
b1 !#
b1 +#
b1 M"
0,
0N"
bx .
bx -#
bx 3#
bx :#
bx =#
b101 E
b101 (#
b101 0#
b101 8#
b101 <#
b100 8
b100 *#
b100 9#
b100 1#
b1010 3
b1010 U
b1010 5"
b1010 $#
b1010 ,#
b1010 2#
1+
14#
1$
#80
0$
#85
0^
0r
0T
1`
b1000 ]
b1000 /"
b0 x
b10 w
b1 \
b1 s
b1 +"
b1 -"
1Z
b101000010010001000100011 p"
b101000010010001000100011 u"
b11111111111111111111111111110100 B"
b11111111111111111111111111110100 X"
b11111111111111111111111111110100 ["
b1 1"
b10 p
b10 y
b0 q
b0 z
1""
0*"
b100011 o
b100011 {
b100011 ~
b11000 k"
b11000 x"
b11000 }"
bx '
bx R
bx 2"
bx D"
bx d"
bx i"
bx ;#
bx >#
bx C"
bx Y"
bx c"
b10100 ;
b10100 X
b10100 m"
b10000 "
b10000 =
b10000 Y
b10000 o"
b100010010010000100011 !
b100010010010000100011 @
b100010010010000100011 [
b100010010010000100011 ."
b100010010010000100011 q"
b11000 l"
b11000 y"
b11000 {"
b10100 n"
b10100 v"
b10100 |"
b10100 ~"
bx E
bx (#
bx 0#
bx 8#
bx <#
b1000 8
b1000 *#
b1000 9#
b1000 1#
b1 3
b1 U
b1 5"
b1 $#
b1 ,#
b1 2#
0+
04#
b1100 9
b1100 :"
b1100 )#
b1100 K"
b0 1
b0 >"
b0 !#
b0 +#
b0 M"
b10100 /
b10100 Q
b10100 ##
b10100 l
b10 0
b10 P
b10 "#
b10 k
b10000 :
b10000 L
b10000 9"
b10000 g
b1100 <
b1100 K
b1100 f
b1100 8"
b1100 ]"
b10 2
b10 O
b10 ="
b10 j
b0 6
b0 F"
b0 _"
b0 j"
b0 w"
b11111111111111111111111111110100 A
b11111111111111111111111111110100 J
b11111111111111111111111111110100 d
b11111111111111111111111111110100 7"
b11111111111111111111111111110100 Z"
b11111111111111111111111111110100 ^"
bx 5
bx M
bx h
bx ;"
bx `"
1G
1-
1m
b10100 t"
b10000 s"
b100010010010000100011 r"
1$
#90
0$
#95
b100 ]
b100 /"
b101 V
b101 3"
b100000000001010010011 p"
b100000000001010010011 u"
b1010 1"
b11100 k"
b11100 x"
b11100 }"
b11000 ;
b11000 X
b11000 m"
b10100 "
b10100 =
b10100 Y
b10100 o"
b101000010010001000100011 !
b101000010010001000100011 @
b101000010010001000100011 [
b101000010010001000100011 ."
b101000010010001000100011 q"
b1000 B"
b1000 X"
b1000 ["
b11100 l"
b11100 y"
b11100 {"
b11000 n"
b11000 v"
b11000 |"
b11000 ~"
b11000 t"
b10100 s"
b101000010010001000100011 r"
b1 /
b1 Q
b1 ##
b1 l
b10100 :
b10100 L
b10100 9"
b10100 g
b10000 <
b10000 K
b10000 f
b10000 8"
b10000 ]"
b1000 2
b1000 O
b1000 ="
b1000 j
b11000 6
b11000 F"
b11000 _"
b11000 j"
b11000 w"
b1000 A
b1000 J
b1000 d
b1000 7"
b1000 Z"
b1000 ^"
1?
1e
0-
0m
b10000 9
b10000 :"
b10000 )#
b10000 K"
b10 1
b10 >"
b10 !#
b10 +#
b10 M"
1,
1N"
b1100 8
b1100 *#
b1100 9#
b1100 1#
b0 3
b0 U
b0 5"
b0 $#
b0 ,#
b0 2#
1$
#100
0$
#105
1T
b1 ]
b1 /"
bx V
bx 3"
b0 W
b0 4"
b0 w
b0 \
b0 s
b0 +"
b0 -"
0Z
b101000101100011001100011 p"
b101000101100011001100011 u"
b1 1"
b0 0"
b0 p
b0 y
0""
1*"
b10011 o
b10011 {
b10011 ~
b100000 k"
b100000 x"
b100000 }"
b100 B"
b100 X"
b100 ["
b101 A"
b101 \"
b101 h"
b11100 ;
b11100 X
b11100 m"
b11000 "
b11000 =
b11000 Y
b11000 o"
b100000000001010010011 !
b100000000001010010011 @
b100000000001010010011 [
b100000000001010010011 ."
b100000000001010010011 q"
b100000 l"
b100000 y"
b100000 {"
b11100 n"
b11100 v"
b11100 |"
b11100 ~"
b10000 8
b10000 *#
b10000 9#
b10000 1#
b10 3
b10 U
b10 5"
b10 $#
b10 ,#
b10 2#
1+
14#
b10100 9
b10100 :"
b10100 )#
b10100 K"
b1000 1
b1000 >"
b1000 !#
b1000 +#
b1000 M"
1>
1J"
0,
0N"
b1010 /
b1010 Q
b1010 ##
b1010 l
b11000 :
b11000 L
b11000 9"
b11000 g
b10100 <
b10100 K
b10100 f
b10100 8"
b10100 ]"
b100 2
b100 O
b100 ="
b100 j
b11000 6
b11000 F"
b11000 _"
b11000 j"
b11000 w"
b100 A
b100 J
b100 d
b100 7"
b100 Z"
b100 ^"
b101 4
b101 N
b101 i
b101 <"
b101 e"
b11100 t"
b11000 s"
b100000000001010010011 r"
1$
#110
0$
#115
0^
0r
b1 a
b1 u
b1 }
b1 v
0S"
0V"
0@"
0T
b10 \
b10 s
b10 +"
b10 -"
0`
b1 t
b1 |
b1 ,"
b1 E"
b1 U"
b1100 ]
b1100 /"
b101 V
b101 3"
bx W
bx 4"
b100 w
1_
b1010000010110010011 p"
b1010000010110010011 u"
b1010 1"
b101 0"
b100 p
b100 y
1("
0*"
b1100011 o
b1100011 {
b1100011 ~
b1 T"
b100100 k"
b100100 x"
b100100 }"
b100000 ;
b100000 X
b100000 m"
b11100 "
b11100 =
b11100 Y
b11100 o"
b101000101100011001100011 !
b101000101100011001100011 @
b101000101100011001100011 [
b101000101100011001100011 ."
b101000101100011001100011 q"
b1 B"
b1 X"
b1 ["
bx A"
bx \"
bx h"
b0 C"
b0 Y"
b0 c"
b100100 l"
b100100 y"
b100100 {"
b100000 n"
b100000 v"
b100000 |"
b100000 ~"
b100000 t"
b11100 s"
b101000101100011001100011 r"
b1 /
b1 Q
b1 ##
b1 l
b0 0
b0 P
b0 "#
b0 k
b11100 :
b11100 L
b11100 9"
b11100 g
b11000 <
b11000 K
b11000 f
b11000 8"
b11000 ]"
b101 2
b101 O
b101 ="
b101 j
b11001 6
b11001 F"
b11001 _"
b11001 j"
b11001 w"
b1 A
b1 J
b1 d
b1 7"
b1 Z"
b1 ^"
bx 4
bx N
bx i
bx <"
bx e"
b0 5
b0 M
b0 h
b0 ;"
b0 `"
0?
0e
1-
1m
b101 &
b101 ?"
b101 .#
b101 6#
b101 L"
b11000 9
b11000 :"
b11000 )#
b11000 K"
b100 1
b100 >"
b100 !#
b100 +#
b100 M"
b10100 8
b10100 *#
b10100 9#
b10100 1#
b1000 3
b1000 U
b1000 5"
b1000 $#
b1000 ,#
b1000 2#
0+
04#
1$
#120
0$
#125
x7
xV"
x@"
xS"
bx E"
bx U"
b0 ]
b0 /"
b0 a
b0 u
b0 }
b0 v
1T
b0 \
b0 s
b0 +"
b0 -"
1`
b0 t
b0 |
b0 ,"
b0 V
b0 3"
b101 W
b101 4"
b0 w
0_
b10010000000000000001101111 p"
b10010000000000000001101111 u"
bx T"
b0 1"
b1010 0"
b0 p
b0 y
0("
1*"
b10011 o
b10011 {
b10011 ~
b101000 k"
b101000 x"
b101000 }"
b101 B"
b101 X"
b101 ["
b101 A"
b101 \"
b101 h"
bx C"
bx Y"
bx c"
b100100 ;
b100100 X
b100100 m"
b100000 "
b100000 =
b100000 Y
b100000 o"
b1010000010110010011 !
b1010000010110010011 @
b1010000010110010011 [
b1010000010110010011 ."
b1010000010110010011 q"
b101000 l"
b101000 y"
b101000 {"
b100100 n"
b100100 v"
b100100 |"
b100100 ~"
b11000 8
b11000 *#
b11000 9#
b11000 1#
b100 3
b100 U
b100 5"
b100 $#
b100 ,#
b100 2#
b1 F
b1 I"
b1 O"
b1 a"
b1 f"
b1 '#
b1 5#
bx &
bx ?"
bx .#
bx 6#
bx L"
b11100 9
b11100 :"
b11100 )#
b11100 K"
b101 1
b101 >"
b101 !#
b101 +#
b101 M"
0>
0J"
1,
1N"
b1010 /
b1010 Q
b1010 ##
b1010 l
b101 0
b101 P
b101 "#
b101 k
b100000 :
b100000 L
b100000 9"
b100000 g
b11100 <
b11100 K
b11100 f
b11100 8"
b11100 ]"
b1100 2
b1100 O
b1100 ="
b1100 j
b101000 6
b101000 F"
b101000 _"
b101000 j"
b101000 w"
b1100 A
b1100 J
b1100 d
b1100 7"
b1100 Z"
b1100 ^"
b101 4
b101 N
b101 i
b101 <"
b101 e"
bx 5
bx M
bx h
bx ;"
bx `"
b1 H
b1 I
b1 b
b1 6"
b1 Q"
1D
0G
0-
0m
b100100 t"
b100000 s"
b1010000010110010011 r"
1$
#130
0$
